{
    "debug": true,
    "customRuby": true,
    "lintScripts": false,
    "preprocessorLocations": "src",
    "preprocessorScriptOutput": "a/j",
    "preprocessorStyleOutput": "a/c",
    "projectName": "Frontend",
    "projectDescription": "A mobile first, responsive frontend framework",
    "publishedId": null,
    "serverHostname": null,
    "serverPort": null,
    "templateDirectory": "templates",
    "templateDefaultLayout": "layout",
    "templateDefaultPage": "index",
    "type": "mixture",
    "useCompass": true,
    "simpleModePartnerServer": null,
    "simpleModeFileTypes": null,
    "modelSource": null,
    "domain": null,
    "convertHtmlOutput": null,
    "followLeader": true,
    "routes": null,
    "remoteDebugPort": 0,
    "useNodeSass": false,
    "optimiseImages": true,
    "password": null
}